[
  {
    "city": "Ardahan",
    "districts": ["Çıldır", "Damal", "Posof", "Ardahan Merkez", "Hanak", "Göle"]
  },
  {
    "city": "Artvin",
    "districts": [
      "Şavşat",
      "Artvin Merkez",
      "Borçka",
      "Ardanuç",
      "Yusufeli",
      "Hopa",
      "Arhavi",
      "Murgul"
    ]
  },
  {
    "city": "Aydın",
    "districts": [
      "Koçarlı",
      "Söke",
      "Yenipazar",
      "İncirliova",
      "Kuyucak",
      "Efeler",
      "Germencik",
      "Çine",
      "Bozdoğan",
      "Didim",
      "Karacasu",
      "Sultanhisar",
      "Aydın Merkez",
      "Karpuzlu",
      "Köşk",
      "Nazilli",
      "Kuşadası",
      "Buharkent"
    ]
  },
  {
    "city": "Ağrı",
    "districts": [
      "Hamur",
      "Ağrı Merkez",
      "Eleşkirt",
      "Patnos",
      "Doğubayazıt",
      "Diyadin",
      "Tutak",
      "Taşlıçay"
    ]
  },
  {
    "city": "Balıkesir",
    "districts": [
      "Susurluk",
      "Sındırgı",
      "Marmara",
      "Havran",
      "Savaştepe",
      "Gönen",
      "Dursunbey",
      "Kepsut",
      "Karesi",
      "Ayvalık",
      "İvrindi",
      "Balıkesir Merkez",
      "Burhaniye",
      "Bandırma",
      "Bigadiç",
      "Manyas",
      "Gömeç",
      "Erdek",
      "Balya",
      "Edremit",
      "Altıeylül"
    ]
  },
  {
    "city": "Bartın",
    "districts": ["Bartın Merkez", "Amasra", "Ulus", "Kurucaşile"]
  },
  {
    "city": "Batman",
    "districts": [
      "Beşiri",
      "Hasankeyf",
      "Sason",
      "Kozluk",
      "Batman Merkez",
      "Gercüş"
    ]
  },
  {
    "city": "Bayburt",
    "districts": ["Bayburt Merkez", "Demirözü", "Aydıntepe"]
  }]
