[
  {
    "city": "Kırıkkale",
    "districts": [
      "Keskin",
      "Bahşili",
      "Kırıkkale Merkez",
      "Balışeyh",
      "Çelebi",
      "Delice",
      "Sulakyurt",
      "Karakeçili",
      "Yahşihan"
    ]
  },
  {
    "city": "Kırşehir",
    "districts": [
      "Kırşehir Merkez",
      "Kaman",
      "Boztepe",
      "Çiçekdağı",
      "Mucur",
      "Akçakent",
      "Akpınar"
    ]
  },
  {
    "city": "Malatya",
    "districts": [
      "Darende",
      "Battalgazi",
      "Pütürge",
      "Arapgir",
      "Doğanşehir",
      "Yazıhan",
      "Kuluncak",
      "Hekimhan",
      "Doğanyol",
      "Kale Malatya",
      "Akçadağ",
      "Yeşilyurt",
      "Arguvan",
      "Malatya Merkez"
    ]
  },
  {
    "city": "Manisa",
    "districts": [
      "Manisa Merkez",
      "Kula",
      "Ahmetli",
      "Gölmarmara",
      "Salihli",
      "Demirci",
      "Köprübaşı",
      "Turgutlu",
      "Şehzadeler",
      "Sarıgöl",
      "Yunusemre",
      "Gördes",
      "Saruhanlı",
      "Akhisar",
      "Alaşehir",
      "Kırkağaç",
      "Soma",
      "Selendi"
    ]
  },
  {
    "city": "Mardin",
    "districts": [
      "Derik",
      "Kızıltepe",
      "Dargeçit",
      "Nusaybin",
      "Mardin Merkez",
      "Artuklu",
      "Ömerli",
      "Midyat",
      "Savur",
      "Yeşilli",
      "Mazıdağı"
    ]
  },
  {
    "city": "Mersin",
    "districts": [
      "Erdemli",
      "Bozyazı",
      "Mezitli",
      "Çamlıyayla",
      "Gülnar",
      "Anamur",
      "Silifke",
      "Mut",
      "Akdeniz",
      "Tarsus",
      "Aydıncık",
      "Toroslar",
      "Yenişehir"
    ]
  },
  {
    "city": "Muğla",
    "districts": [
      "Seydikemer",
      "Ula",
      "Ortaca",
      "Fethiye",
      "Muğla Merkez",
      "Marmaris",
      "Dalaman",
      "Milas",
      "Köyceğiz",
      "Datça",
      "Yatağan",
      "Bodrum",
      "Menteşe",
      "Kavaklıdere"
    ]
  },
  {
    "city": "Muş",
    "districts": [
      "Korkut",
      "Malazgirt",
      "Bulanık",
      "Varto",
      "Muş Merkez",
      "Hasköy"
    ]
  }]